{
  "project_info": {
    "project_number": "479877390937",
    "project_id": "mega-ramps---galaxy-race-3b55e",
    "storage_bucket": "mega-ramps---galaxy-race-3b55e.appspot.com"
  },
  "client": [
    {
      "client_info": {
        "mobilesdk_app_id": "1:479877390937:android:6a1611133b886a6da84748",
        "android_client_info": {
          "package_name": "com.gamenexa.megaramp.galaxyracer"
        }
      },
      "oauth_client": [
        {
          "client_id": "479877390937-gq84bs4ce138e1sk7ulgo9556lbetchb.apps.googleusercontent.com",
          "client_type": 1,
          "android_info": {
            "package_name": "com.gamenexa.megaramp.galaxyracer",
            "certificate_hash": "8b12c7826de1944915af8a77ab676f321b7aa845"
          }
        },
        {
          "client_id": "479877390937-p4r5lu7ej7mlgt67f6usofshlqjp7bgd.apps.googleusercontent.com",
          "client_type": 1,
          "android_info": {
            "package_name": "com.gamenexa.megaramp.galaxyracer",
            "certificate_hash": "688568a5a50ddba2005f506c7689f3edc06835eb"
          }
        },
        {
          "client_id": "479877390937-rl07ip3cbs3njjntchs5bbed8k77dic2.apps.googleusercontent.com",
          "client_type": 3
        }
      ],
      "api_key": [
        {
          "current_key": "AIzaSyD4A3mv8maUTPnOTaVne41Dwrkpa5XKshQ"
        }
      ],
      "services": {
        "appinvite_service": {
          "other_platform_oauth_client": [
            {
              "client_id": "479877390937-rl07ip3cbs3njjntchs5bbed8k77dic2.apps.googleusercontent.com",
              "client_type": 3
            }
          ]
        }
      }
    }
  ],
  "configuration_version": "1"
}